<?xml version="1.0" encoding="utf-8"?>
<!-- Generator: Adobe Illustrator 19.2.0, SVG Export Plug-In . SVG Version: 6.00 Build 0)  -->
<svg version="1.1" id="Layer_1" xmlns="http://www.w3.org/2000/svg" xmlns:xlink="http://www.w3.org/1999/xlink" x="0px" y="0px"
	 viewBox="0 0 108 108" style="enable-background:new 0 0 108 108;" xml:space="preserve">
<style type="text/css">
	.st0{fill:#3D5072;}
	.st1{fill:#DD2F37;}
	.st2{fill:#FFFFFF;}
	.st3{fill:#00B7FF;}
	.st4{fill:#F4F4F4;}
	.st5{fill:#8DD320;}
	.st6{fill:#EAAA0A;}
	.st7{fill:#EAEAEA;}
	.st8{opacity:0.45;fill:#999999;}
	.st9{fill:#3B5173;}
	.st10{opacity:0.99;}
	.st11{fill-rule:evenodd;clip-rule:evenodd;}
</style>
<path class="st7" d="M54,0C24.2,0,0,24.2,0,54c0,15.5,6.6,29.5,17.1,39.4C26.7,102.4,39.7,108,54,108c14.1,0,27-5.4,36.6-14.3
	c10.7-9.9,17.4-24,17.4-39.7C108,24.2,83.8,0,54,0z"/>
<path class="st8" d="M90.8,93.7c-0.3-0.2-0.6-0.4-0.9-0.5c-2.4-1.2-8.5-2.3-14.3-3.9c0,0,0,0,0.1,0l-3.2-0.9
	c-0.6-0.2-1.2-0.4-1.8-0.7c-0.1,0-0.1,0-0.2-0.1c-0.6-0.3-1.2-0.5-1.8-0.8c0,0-0.1,0-0.1-0.1c-0.2-0.1-0.5-0.2-0.7-0.4
	c-0.1,0-0.1-0.1-0.2-0.1c-0.2-0.1-0.4-0.3-0.7-0.4c0,0-0.1,0-0.1-0.1c-0.2-0.2-0.5-0.3-0.7-0.5c0,0,0,0,0,0
	c-0.2-0.2-0.4-0.3-0.6-0.5c0,0-0.1-0.1-0.1-0.1c-0.1-0.1-0.3-0.3-0.4-0.4c0,0-0.1-0.1-0.1-0.1c-0.1-0.2-0.3-0.3-0.4-0.5
	c0,0,0,0-0.1-0.1c-0.1-0.2-0.3-0.4-0.4-0.5c0,0,0-0.1-0.1-0.1c-0.1-0.1-0.1-0.3-0.2-0.4c0-0.1,0-0.1-0.1-0.2c0-0.1-0.1-0.3-0.1-0.4
	c0-0.1,0-0.1,0-0.2c0-0.2-0.1-0.4-0.1-0.6v-3.6c3.6-2.9,6.3-7.4,7.4-12.6c0.1,0,0.1,0,0.2,0c1.7,0,3.3-3.2,3.4-7.1
	c0.1-2.3-0.3-4.4-1-5.7c0.9-2,1.9-4.8,2.8-8.8c0,0-13.1-34-33.7-14.6c0,0-13.2,2.7-10.4,15.1c0.7,3.1,1.5,5.3,2.4,7.5
	c-1.1,1.1-1.8,3.6-1.7,6.5c0.1,3.9,1.7,7.1,3.4,7.1c0.1,0,0.1,0,0.2,0c1,5.2,3.7,9.7,7.4,12.6v3.6c0,0.2,0,0.4-0.1,0.6
	c0,0.1,0,0.1,0,0.2c0,0.1-0.1,0.3-0.1,0.4c0,0.1,0,0.1-0.1,0.2c-0.1,0.1-0.1,0.3-0.2,0.4c0,0,0,0.1-0.1,0.1
	c-0.1,0.2-0.2,0.4-0.4,0.5c0,0,0,0.1-0.1,0.1c-0.1,0.1-0.2,0.3-0.4,0.4c0,0.1-0.1,0.1-0.1,0.2c-0.1,0.1-0.3,0.2-0.4,0.4
	c-0.1,0-0.1,0.1-0.2,0.1c-0.2,0.1-0.4,0.3-0.5,0.4c0,0,0,0-0.1,0c-0.2,0.2-0.5,0.3-0.7,0.5c0,0-0.1,0.1-0.2,0.1
	c-0.2,0.1-0.4,0.2-0.6,0.3c-0.1,0-0.1,0.1-0.2,0.1c-0.2,0.1-0.4,0.2-0.6,0.3c-0.1,0-0.1,0.1-0.2,0.1c-0.6,0.3-1.2,0.5-1.8,0.8
	c-0.1,0-0.2,0.1-0.2,0.1c-0.1,0.1-0.3,0.1-0.4,0.2l-4.5,1.5c-5.7,1.7-11.9,2.8-14.3,3.9c-0.1,0.1-0.3,0.2-0.4,0.2
	c9.7,9.1,22.6,14.6,36.9,14.6C68.3,108,81.2,102.6,90.8,93.7z"/>
</svg>
