<?xml version="1.0" encoding="utf-8"?>
<!-- Generator: Adobe Illustrator 19.2.0, SVG Export Plug-In . SVG Version: 6.00 Build 0)  -->
<svg version="1.1" id="Layer_1" xmlns="http://www.w3.org/2000/svg" xmlns:xlink="http://www.w3.org/1999/xlink" x="0px" y="0px"
	 viewBox="0 0 18 18" style="enable-background:new 0 0 18 18;" xml:space="preserve">
<style type="text/css">
	.st0{fill:#3D5072;}
	.st1{fill:#DD2F37;}
	.st2{fill:#FFFFFF;}
	.st3{fill:#00B7FF;}
	.st4{fill:#F4F4F4;}
	.st5{fill:#8DD320;}
	.st6{fill:#EAAA0A;}
	.st7{fill:#EAEAEA;}
	.st8{opacity:0.45;fill:#999999;}
	.st9{fill:#3B5173;}
	.st10{opacity:0.99;}
	.st11{fill-rule:evenodd;clip-rule:evenodd;}
</style>
<g>
	<path class="st1" d="M15.4,15.4c-3.5,3.5-9.2,3.5-12.7,0c-3.5-3.5-3.5-9.2,0-12.7c3.5-3.5,9.2-3.5,12.7,0
		C18.9,6.2,18.9,11.8,15.4,15.4"/>
	<path class="st2" d="M7.1,10.7c-0.3,0-0.5-0.2-0.5-0.5c0-0.3,0.2-0.5,0.5-0.5l1.3,0L6.7,8.1C6.6,8,6.5,7.8,6.6,7.6
		c0.1-0.2,0.2-0.3,0.4-0.3h4.2c0.3,0,0.5,0.2,0.5,0.5c0,0.3-0.2,0.5-0.5,0.5h-3l1.6,1.5c0.1,0.1,0.2,0.3,0.1,0.5
		c-0.1,0.2-0.2,0.3-0.4,0.3L7.1,10.7C7.1,10.7,7.1,10.7,7.1,10.7z"/>
	<path class="st2" d="M12.3,7.1c0-0.4,0.4-0.8,0.8-0.8s0.8,0.4,0.8,0.8c0,0.4-0.4,0.8-0.8,0.8S12.3,7.5,12.3,7.1"/>
	<path class="st2" d="M3.4,10.6c-0.3,0-0.5-0.2-0.5-0.5c0-0.3,0.2-0.5,0.5-0.5l1.9,0l1-2.1c0.1-0.2,0.2-0.3,0.4-0.3h4.5
		c0.3,0,0.5,0.2,0.5,0.5c0,0.3-0.2,0.5-0.5,0.5H7l-1,2.1c-0.1,0.2-0.2,0.3-0.4,0.3L3.4,10.6L3.4,10.6z"/>
	<path class="st2" d="M14.9,10.6C14.9,10.6,14.8,10.6,14.9,10.6l-2.7-0.1c-0.2,0-0.4-0.1-0.4-0.3l-1-2.3c-0.1-0.2,0-0.5,0.2-0.6
		c0.2-0.1,0.5,0,0.6,0.2l0.8,2l2.4,0c0.3,0,0.5,0.2,0.5,0.5C15.3,10.4,15.1,10.6,14.9,10.6z"/>
</g>
</svg>
