<?xml version="1.0" encoding="utf-8"?>
<!-- Generator: Adobe Illustrator 19.2.0, SVG Export Plug-In . SVG Version: 6.00 Build 0)  -->
<svg version="1.1" id="Layer_1" xmlns="http://www.w3.org/2000/svg" xmlns:xlink="http://www.w3.org/1999/xlink" x="0px" y="0px"
	 viewBox="0 0 18 18" style="enable-background:new 0 0 18 18;" xml:space="preserve">
<style type="text/css">
	.st0{fill:#3D5072;}
	.st1{fill:#DD2F37;}
	.st2{fill:#FFFFFF;}
	.st3{fill:#00B7FF;}
	.st4{fill:#F4F4F4;}
	.st5{fill:#8DD320;}
	.st6{fill:#EAAA0A;}
	.st7{fill:#EAEAEA;}
	.st8{opacity:0.45;fill:#999999;}
	.st9{fill:#3B5173;}
	.st10{opacity:0.99;}
	.st11{fill-rule:evenodd;clip-rule:evenodd;}
</style>
<g>
	<path class="st1" d="M15.4,15.4c-3.5,3.5-9.2,3.5-12.7,0c-3.5-3.5-3.5-9.2,0-12.7c3.5-3.5,9.2-3.5,12.7,0
		C18.9,6.2,18.9,11.8,15.4,15.4"/>
	<path class="st2" d="M7.8,13.1C7.8,13.1,7.7,13.1,7.8,13.1c-0.3,0-0.5-0.2-0.5-0.4L6.9,7.4C6.9,7.2,7,7.1,7.1,7
		c0.1-0.1,0.3-0.1,0.5,0l1.9,1l0.1-0.2c0.1-0.2,0.3-0.3,0.4-0.3c0.2,0,0.3,0.1,0.4,0.3l0.3,0.8l1.3,0.7c0.2,0.1,0.3,0.4,0.2,0.6
		c-0.1,0.2-0.4,0.3-0.6,0.2l-0.4-0.2l0.9,2.2c0.1,0.2,0,0.5-0.3,0.6c-0.2,0.1-0.5,0-0.6-0.3l-1.3-3.2l-0.1,0l-1.7,3.6
		C8.1,13,8,13.1,7.8,13.1z M7.9,8.2l0.2,2.7l1-2L7.9,8.2z"/>
	<path class="st2" d="M8.1,5.3c0,0.4-0.4,0.8-0.8,0.8c-0.4,0-0.8-0.4-0.8-0.8c0-0.4,0.4-0.8,0.8-0.8C7.8,4.5,8.1,4.8,8.1,5.3"/>
</g>
</svg>
