<?xml version="1.0" encoding="utf-8"?>
<!-- Generator: Adobe Illustrator 19.2.0, SVG Export Plug-In . SVG Version: 6.00 Build 0)  -->
<svg version="1.1" id="Layer_1" xmlns="http://www.w3.org/2000/svg" xmlns:xlink="http://www.w3.org/1999/xlink" x="0px" y="0px"
	 viewBox="0 0 24 24" style="enable-background:new 0 0 24 24;" xml:space="preserve">
<style type="text/css">
	.st0{fill:#3D5072;}
	.st1{fill:#DD2F37;}
	.st2{fill:#FFFFFF;}
	.st3{fill:#00B7FF;}
	.st4{fill:#F4F4F4;}
	.st5{fill:#8DD320;}
	.st6{fill:#EAAA0A;}
	.st7{fill:#EAEAEA;}
	.st8{opacity:0.45;fill:#999999;}
	.st9{fill:#3B5173;}
	.st10{opacity:0.99;}
	.st11{fill-rule:evenodd;clip-rule:evenodd;}
</style>
<g>
	<g transform="translate(-1524.000000, -18.000000)">
		<path d="M1527.5,30c0-4.7,3.8-8.5,8.5-8.5c4.7,0,8.5,3.8,8.5,8.5c0,4.7-3.8,8.5-8.5,8.5C1531.3,38.5,1527.5,34.7,1527.5,30z
			 M1539.1,28.3l-1.1-0.2l-0.2-1.1c0,0,1.3-1.4,1.3-1.4c-1-0.5-2.2-0.3-3,0.5c-0.7,0.7-1,1.8-0.6,2.8l-3.2,3.2
			c-0.5,0.5-0.5,1.2,0,1.7c0.5,0.5,1.2,0.5,1.7,0l3.2-3.2c0.9,0.3,2,0.1,2.8-0.6c0.8-0.8,1-2,0.5-3
			C1540.3,27.2,1539.1,28.3,1539.1,28.3z"/>
	</g>
</g>
</svg>
