<?xml version="1.0" encoding="utf-8"?>
<!-- Generator: Adobe Illustrator 19.2.0, SVG Export Plug-In . SVG Version: 6.00 Build 0)  -->
<svg version="1.1" id="Layer_1" xmlns="http://www.w3.org/2000/svg" xmlns:xlink="http://www.w3.org/1999/xlink" x="0px" y="0px"
	 viewBox="0 0 122 143.4" style="enable-background:new 0 0 122 143.4;" xml:space="preserve">
<style type="text/css">
	.st0{fill:#3D5072;}
	.st1{fill:#DD2F37;}
	.st2{fill:#FFFFFF;}
	.st3{fill:#00B7FF;}
	.st4{fill:#F4F4F4;}
	.st5{fill:#8DD320;}
	.st6{fill:#EAAA0A;}
	.st7{fill:#EAEAEA;}
	.st8{opacity:0.45;fill:#999999;}
	.st9{fill:#3B5173;}
	.st10{opacity:0.99;}
	.st11{fill-rule:evenodd;clip-rule:evenodd;}
</style>
<g>
	<g>
		<rect x="22.6" y="104.6" class="st0" width="18" height="7"/>
		<path class="st0" d="M94.4,123.3l-4.9-31.9c-0.3-1.6-1.5-2.8-2.9-3.1L65,77.2c5-4.7,8.1-11.3,8.1-18.6V38.8
			c0-14.1-11.5-25.6-25.7-25.6c-14.2,0-25.7,11.5-25.7,25.6v19.7c0,7.3,3.1,13.9,8,18.6L7.3,88.6c-0.1,0.1-0.2,0.1-0.3,0.2
			c-0.1,0-0.1,0.1-0.2,0.1c-0.1,0.1-0.3,0.2-0.4,0.3c-0.1,0.1-0.1,0.1-0.2,0.2c-0.1,0.1-0.2,0.2-0.3,0.4c-0.1,0.1-0.1,0.2-0.2,0.2
			c-0.1,0.1-0.1,0.3-0.2,0.4c0,0.1-0.1,0.2-0.1,0.3c0,0.1-0.1,0.3-0.1,0.4c0,0.1-0.1,0.2-0.1,0.2l0,0.2c0,0,0,0,0,0l-4.9,31.7
			c-0.9,5.3,0.3,10.3,3.4,14.2c3.1,3.9,7.7,6,13,6H78c5.2,0,9.8-2.1,13-6C94.1,133.6,95.3,128.6,94.4,123.3z M29.3,38.8
			c0-9.8,8.1-17.7,18.1-17.7c10,0,18.1,8,18.1,17.7v19.7c0,9.8-8.1,17.7-18.1,17.7c-10,0-18.1-8-18.1-17.7V38.8z M85.1,132.4
			c-1.6,2-4.2,3.1-7.1,3.1H16.7c-2.9,0-5.4-1.1-7.1-3.1c-1.6-2-2.3-4.8-1.7-7.7l4.6-29.9l24.6-12.6c3.1,1.4,6.6,2.1,10.2,2.1
			c3.6,0,7-0.7,10.1-2.1l24.8,12.7l4.6,29.8C87.3,127.6,86.7,130.4,85.1,132.4z"/>
	</g>
	<path class="st2" d="M97.1,137.1c0,1.1-0.6,1.6-1.6,1.6h-1.6c-1.1,0-1.6-0.5-1.6-1.6v-1.4c0-1.1,0.5-1.6,1.6-1.6h1.6
		c1.1,0,1.6,0.6,1.6,1.6V137.1z"/>
	<path class="st2" d="M96.8,128.9c0,1.1-0.6,1.6-1.6,1.6H94c-1,0-1.6-0.5-1.6-1.6L92,112.2c0-1.1,0.5-1.7,1.6-1.7h1.9
		c1.1,0,1.6,0.6,1.6,1.7L96.8,128.9z"/>
	<g>
		<path id="check-mark-3-icon_6_" class="st3" d="M94.1,91.9c-14.1,0-25.6,11.4-25.6,25.6s11.4,25.6,25.6,25.6s25.6-11.4,25.6-25.6
			S108.2,91.9,94.1,91.9z"/>
		<polygon class="st4" points="89.7,131.3 77.6,119.2 82.8,114 89.7,121 105.7,105 110.9,110.1 		"/>
	</g>
</g>
</svg>
