<?xml version="1.0" encoding="UTF-8"?>
<svg width="26px" height="26px" viewBox="0 0 26 26" version="1.1" xmlns="http://www.w3.org/2000/svg"
	 xmlns:xlink="http://www.w3.org/1999/xlink">
	<!-- Generator: Sketch 45.1 (43504) - http://www.bohemiancoding.com/sketch -->
	<title>Group 2</title>
	<desc>Created with Sketch.</desc>
	<defs>
		<rect id="path-1" x="0" y="0" width="15.5807675" height="12.0859584"></rect>
		<rect id="path-3" x="0" y="0" width="15.5807675" height="12.0859584"></rect>
		<rect id="path-5" x="0" y="0" width="15.5807675" height="12.0859584"></rect>
		<rect id="path-7" x="0" y="0" width="15.5807675" height="12.0859584"></rect>
		<rect id="path-9" x="0" y="0" width="15.5807675" height="12.0859584"></rect>
		<rect id="path-11" x="0" y="0" width="15.5807675" height="12.0859584"></rect>
		<rect id="path-13" x="0" y="0" width="15.5807675" height="12.0859584"></rect>
		<rect id="path-15" x="0" y="0" width="15.5807675" height="12.0859584"></rect>
	</defs>
	<g id="Page-1" stroke="none" stroke-width="1" fill="none" fill-rule="evenodd">
		<g id="Group-2">
			<g id="circle" fill-rule="nonzero">
				<circle id="Ellipse_5_copy_5" cx="13" cy="13" r="13"></circle>
			</g>
			<g transform="translate(6.000000, 7.000000)">

				<path d="M13.8549055,10.4991994 L13.1347704,10.4991994 L13.1347704,9.75936833 L13.8549055,9.75936833 C14.1885065,9.75936833 14.4470165,9.57348733 14.5947365,9.27804732 C15.0021975,8.38926529 14.8126235,8.63669629 14.8126235,7.37861425 C14.8126235,6.86036323 13.7810455,7.09425324 12.2632224,6.24363221 L12.2262924,6.20670221 L10.6173754,4.66425916 C9.98833434,3.70161713 8.7302523,2.22072408 7.95226027,2.22072408 L1.81326306,2.22072408 C1.22115204,2.22072408 0.739831025,2.70204509 0.739831025,3.29415611 L0.739831025,8.50005529 C0.739831025,9.20295631 1.29501204,9.75936833 1.99791307,9.75936833 L2.59125509,9.75936833 L2.59125509,10.4991994 L1.99791307,10.4991994 C0.88755103,10.4991994 0,9.61041733 0,8.50005529 L0,3.29415611 C0,2.29458408 0.813691028,1.48089305 1.81326306,1.48089305 L7.95226027,1.48089305 C9.35929332,1.48089305 10.9509764,3.84933713 11.2094864,4.21986814 L12.6706834,5.61336019 C13.5582345,6.13284221 15.5524545,6.19316121 15.5524545,7.37861425 C15.5524545,8.7844163 15.7063295,8.61084529 15.2988685,9.57348733 C15.0391275,10.1286683 14.4839465,10.4991994 13.8549055,10.4991994"
					  id="Shape" fill="currentColor" fill-rule="nonzero" mask="url(#mask-2)"></path>


				<path d="M14.6759825,7.02039324 L8.6933223,7.02039324 C8.35972128,7.02039324 7.95349127,6.76188323 7.95349127,6.35442222 L7.95349127,4.60394016 C7.95349127,4.19647914 8.35972128,3.93796913 8.6933223,3.93796913 L10.4265704,3.93796913 L11.1233164,4.67780016 L8.6933223,4.67780016 L8.6933223,6.28056221 L14.6168945,6.28056221 L14.6759825,7.02039324 Z"
					  id="Shape" fill="currentColor" fill-rule="nonzero" mask="url(#mask-4)"></path>

				<path d="M12.0022504,12.0859584 C11.0728454,12.0859584 10.3120874,11.3252004 10.3120874,10.3957954 C10.3120874,9.46515932 11.0728454,8.7044013 12.0022504,8.7044013 C12.9316554,8.7044013 13.6924135,9.46515932 13.6924135,10.3957954 C13.6924135,11.3252004 12.9316554,12.0859584 12.0022504,12.0859584 M12.0022504,9.39499232 C11.4519934,9.39499232 11.0014474,9.84553834 11.0014474,10.3957954 C11.0014474,10.9460524 11.4519934,11.3965984 12.0022504,11.3965984 C12.5525074,11.3965984 13.0030534,10.9460524 13.0030534,10.3957954 C13.0030534,9.84553834 12.5525074,9.39499232 12.0022504,9.39499232"
					  id="Shape" fill="currentColor" fill-rule="nonzero" mask="url(#mask-6)"></path>

				<path d="M4.04137314,12.0859584 C3.11196811,12.0859584 2.35121008,11.3252004 2.35121008,10.3957954 C2.35121008,9.46515932 3.11196811,8.7044013 4.04137314,8.7044013 C4.97077817,8.7044013 5.7315362,9.46515932 5.7315362,10.3957954 C5.7315362,11.3252004 4.97077817,12.0859584 4.04137314,12.0859584 M4.04137314,9.39499232 C3.49111612,9.39499232 3.0405701,9.84553834 3.0405701,10.3957954 C3.0405701,10.9460524 3.49111612,11.3965984 4.04137314,11.3965984 C4.59163016,11.3965984 5.04217617,10.9460524 5.04217617,10.3957954 C5.04217617,9.84553834 4.59163016,9.39499232 4.04137314,9.39499232"
					  id="Shape" fill="currentColor" fill-rule="nonzero" mask="url(#mask-8)"></path>

				<rect id="Rectangle-path" fill="currentColor" fill-rule="nonzero" mask="url(#mask-10)" x="5.36100518"
					  y="9.75936833" width="5.38931818" height="1"></rect>

				<rect id="Rectangle-path" fill="currentColor" fill-rule="nonzero" mask="url(#mask-12)" x="2.8079111"
					  y="5.17020018" width="3.70161713" height="1"></rect>

				<rect id="Rectangle-path" fill="currentColor" fill-rule="nonzero" mask="url(#mask-14)" x="4.28880415"
					  y="3.68930713" width="1" height="3.70161713"></rect>

				<path d="M5.7315362,1.85142406 L4.99170517,1.85142406 L4.99170517,1.29624304 C4.99170517,0.999572034 4.80582416,0.741062025 4.62117416,0.741062025 C4.43529315,0.741062025 4.25064314,0.999572034 4.25064314,1.29624304 L4.25064314,1.85142406 L3.51081212,1.85142406 L3.51081212,1.29624304 C3.51081212,0.59334202 3.99213314,0 4.62117416,0 C5.25021518,0 5.7315362,0.59334202 5.7315362,1.29624304 L5.7315362,1.85142406 Z"
					  id="Shape" fill="currentColor" fill-rule="nonzero" mask="url(#mask-16)"></path>
			</g>
		</g>
	</g>
</svg>
