<?xml version="1.0" encoding="UTF-8"?>
<svg width="128px" height="128px" viewBox="0 0 128 128" version="1.1" xmlns="http://www.w3.org/2000/svg"
	 xmlns:xlink="http://www.w3.org/1999/xlink">

	<g stroke="none" stroke-width="1" fill="none" fill-rule="evenodd">
		<g>
			<path d="M63.698,0 C28.518,0 0,28.518 0,63.699 C0,98.879 28.518,127.398 63.698,127.398 C98.878,127.398 127.398,98.879 127.398,63.699 C127.398,28.518 98.878,0 63.698,0 M63.699,117.785 C33.976,117.785 9.88,93.689 9.88,63.967 C9.88,34.244 33.976,10.148 63.699,10.148 C93.422,10.148 117.517,34.244 117.517,63.967 C117.517,93.689 93.422,117.785 63.699,117.785"
				  fill="currentColor" fill-rule="nonzero"></path>

			<path d="M67.826,95.425 C67.826,97.989 65.749,100.067 63.185,100.067 L63.183,100.067 C50.307,100.066 39.87,89.627 39.87,76.751 L39.87,58.093 L39.874,58.093 C39.898,55.581 41.938,53.55 44.456,53.55 C46.974,53.55 49.014,55.581 49.037,58.093 L49.042,58.093 C49.042,58.093 49.046,76.704 49.046,76.751 C49.046,84.561 55.376,90.784 63.185,90.784 C65.749,90.784 67.826,92.862 67.826,95.425"
				  fill="currentColor" fill-rule="nonzero"></path>

			<path d="M59.571,31.971 C59.571,29.408 61.649,27.33 64.212,27.33 L64.214,27.33 C77.09,27.331 87.527,37.769 87.527,50.645 L87.527,69.303 L87.523,69.303 C87.499,71.816 85.458,73.846 82.941,73.846 C80.423,73.846 78.383,71.816 78.361,69.303 L78.355,69.303 C78.355,69.303 78.351,50.693 78.351,50.645 C78.351,42.836 72.021,36.613 64.212,36.613 C61.649,36.613 59.571,34.535 59.571,31.971"
				  fill="currentColor" fill-rule="nonzero"></path>
		</g>
	</g>
</svg>
