<svg viewBox="0 0 2048 2048" xmlns="http://www.w3.org/2000/svg">
	<path fill="currentColor" d="M1811 1459l-166 165q-19 19-45 19t-45-19l-531-531-531 531q-19 19-45 19t-45-19l-166-165q-19-19-19-45.5t19-45.5l742-741q19-19 45-19t45 19l742 741q19 19 19 45.5t-19 45.5z"/>
</svg>
