<?xml version="1.0" encoding="utf-8"?>
<svg version="1.1" id="Layer_1" xmlns="http://www.w3.org/2000/svg" xmlns:xlink="http://www.w3.org/1999/xlink" x="0px" y="0px"
	  viewBox="0 0 18.125 18.125" xml:space="preserve">

<g>
	<path fill="currentColor" d="M15.471,15.471c-3.539,3.539-9.277,3.539-12.816,0
		c-3.54-3.539-3.54-9.277,0-12.816c3.539-3.54,9.277-3.54,12.816,0C19.01,6.194,19.01,11.932,15.471,15.471"/>
	<path fill="#FFFFFF" d="M7.135,10.788c-0.254,0-0.464-0.202-0.473-0.458
		C6.653,10.069,6.858,9.85,7.12,9.841l1.266-0.042L6.772,8.204C6.635,8.07,6.593,7.865,6.666,7.688
		C6.739,7.51,6.912,7.394,7.104,7.394h4.202c0.261,0,0.473,0.212,0.473,0.474c0,0.261-0.212,0.473-0.473,0.473H8.257l1.577,1.558
		c0.135,0.133,0.177,0.333,0.108,0.509c-0.069,0.176-0.236,0.295-0.425,0.301l-2.366,0.079C7.146,10.788,7.14,10.788,7.135,10.788"
		/>
	<path fill="#FFFFFF" d="M12.418,7.159c0-0.437,0.354-0.792,0.792-0.792
		c0.437,0,0.791,0.355,0.791,0.792c0,0.437-0.354,0.792-0.791,0.792C12.772,7.951,12.418,7.596,12.418,7.159"/>
	<path fill="#FFFFFF" d="M3.439,10.709c-0.261,0-0.473-0.211-0.473-0.472
		C2.965,9.975,3.177,9.763,3.438,9.762l1.91-0.004l1.014-2.096c0.079-0.164,0.244-0.268,0.426-0.268h4.518
		c0.261,0,0.473,0.212,0.473,0.474c0,0.261-0.212,0.473-0.473,0.473H7.085l-1.013,2.096c-0.079,0.164-0.244,0.267-0.425,0.268
		L3.439,10.709L3.439,10.709z"/>
	<path fill="#FFFFFF" d="M14.959,10.682c-0.003,0-0.006,0-0.009,0l-2.683-0.053
		c-0.187-0.003-0.354-0.116-0.427-0.288l-0.97-2.289c-0.102-0.241,0.011-0.519,0.251-0.621c0.241-0.102,0.519,0.011,0.621,0.251
		l0.85,2.007l2.376,0.046c0.262,0.005,0.469,0.221,0.464,0.483C15.427,10.476,15.216,10.682,14.959,10.682"/>
</g>
</svg>
