<?xml version="1.0" encoding="UTF-8"?>
<svg viewBox="0 0 32 32" version="1.1" xmlns="http://www.w3.org/2000/svg" xmlns:xlink="http://www.w3.org/1999/xlink">
	<path d="M4.653,27.121 C-1.551,20.917 -1.551,10.858 4.653,4.653 C10.857,-1.551 20.916,-1.551 27.12,4.653 C33.325,10.858 33.325,20.917 27.12,27.121 C20.916,33.325 10.857,33.325 4.653,27.121 L4.653,27.121 Z M20.783,6.94 L20.139,7.708 C19.781,8.134 19.843,8.764 20.27,9.122 L21.788,10.396 C22.221,10.759 22.848,10.702 23.203,10.279 L23.847,9.511 C24.205,9.085 24.143,8.456 23.716,8.097 L22.198,6.824 C21.765,6.46 21.138,6.518 20.783,6.94 L20.783,6.94 Z M9.547,20.139 C9.244,20.5 8.849,21.135 8.659,21.564 C8.659,21.564 7.14,24.748 7.815,25.314 C8.49,25.881 11.362,23.832 11.362,23.832 C11.758,23.571 12.311,23.068 12.611,22.71 L20.372,13.461 C20.679,13.095 20.571,12.521 20.144,12.162 L18.627,10.889 C18.193,10.525 17.609,10.531 17.308,10.89 L9.547,20.139 Z"
		  fill="currentColor" fill-rule="nonzero"></path>

</svg>
