<?xml version="1.0" encoding="utf-8"?>
<!-- Generator: Adobe Illustrator 19.2.0, SVG Export Plug-In . SVG Version: 6.00 Build 0)  -->
<svg version="1.1" id="Layer_1" xmlns="http://www.w3.org/2000/svg" xmlns:xlink="http://www.w3.org/1999/xlink" x="0px" y="0px"
	 viewBox="0 0 132 143.4" style="enable-background:new 0 0 132 143.4;" xml:space="preserve">
<style type="text/css">
	.st0{fill:#3D5072;}
	.st1{fill:#DD2F37;}
	.st2{fill:#FFFFFF;}
	.st3{fill:#00B7FF;}
	.st4{fill:#F4F4F4;}
	.st5{fill:#8DD320;}
	.st6{fill:#EAAA0A;}
</style>
<g>
	<g>
		<rect x="27.7" y="74.9" class="st0" width="35.9" height="7"/>
		<path class="st0" d="M74.1,36.5v-23h-7V31L44.5,13L0,49v88.6c0,3.2,2.6,5.8,5.8,5.8h78.1c3.2,0,5.8-2.6,5.8-5.8V49L74.1,36.5z
			 M82.8,136.5H7V52.3L44.5,22l38.3,30.4V136.5z"/>
	</g>
	<g>
		<path id="check-mark-3-icon_1_" class="st3" d="M87,92.2c-14.1,0-25.6,11.4-25.6,25.6s11.4,25.6,25.6,25.6s25.6-11.4,25.6-25.6
			S101.1,92.2,87,92.2z"/>
		<polygon class="st4" points="82.6,131.5 70.5,119.4 75.7,114.3 82.6,121.2 98.6,105.2 103.8,110.3 		"/>
	</g>
</g>
</svg>
