<?xml version="1.0" encoding="utf-8"?>
<!-- Generator: Adobe Illustrator 19.2.0, SVG Export Plug-In . SVG Version: 6.00 Build 0)  -->
<svg version="1.1" id="Layer_1" xmlns="http://www.w3.org/2000/svg" xmlns:xlink="http://www.w3.org/1999/xlink" x="0px" y="0px"
	 viewBox="0 0 26 26" style="enable-background:new 0 0 26 26;" xml:space="preserve">
<style type="text/css">
	.st0{fill:#3D5072;}
	.st1{fill:#DD2F37;}
	.st2{fill:#FFFFFF;}
	.st3{fill:#00B7FF;}
	.st4{fill:#F4F4F4;}
	.st5{fill:#8DD320;}
	.st6{fill:#EAAA0A;}
	.st7{fill:#EAEAEA;}
	.st8{opacity:0.45;fill:#999999;}
	.st9{fill:#3B5173;}
	.st10{opacity:0.99;}
	.st11{fill-rule:evenodd;clip-rule:evenodd;}
</style>
<path d="M17.7,12.8c-0.1-0.1-0.2-0.2-0.3-0.3c0-0.3,0-1.1,0-1.1c0-2.6-1.5-4.1-3.9-4.3c-0.2,0-0.3,0-0.5,0c-1.9,0-3.3,0.8-3.9,2.1
	c-0.2,0.5-0.4,1-0.4,1.7c0,0.1,0,1.5-0.1,1.6c0,0,0,0,0,0c-0.1,0.1-0.2,0.1-0.3,0.2c-0.2,0.3-0.2,0.7-0.2,1c0,0.1,0,0.1,0,0.2
	c0,0.7,0.4,1.2,0.9,1.4c0.7,2.1,2.3,3.5,4,3.5c1.8,0,3.4-1.4,4-3.5c0.5-0.2,0.9-0.8,0.9-1.4c0-0.1,0-0.1,0-0.2
	C17.9,13.4,17.9,13.1,17.7,12.8 M9.3,11L9.3,11L9.3,11c0.1-0.6,0.2-1.1,0.4-1.5c0.6-1.1,1.8-1.7,3.4-1.7c0.1,0,0.3,0,0.4,0
	c2.1,0.1,3.3,1.4,3.3,3.6c0,0.1,0,0.3,0,0.6c0,0,0-0.1,0-0.1c-0.1-0.6-0.2-1-0.5-1.4l-0.1-0.1l-0.1,0c-0.1-0.1-0.2-0.1-0.3-0.1
	l-0.8-0.2l0,0.3c-0.2,0-0.3-0.1-0.5-0.1c-0.1,0-0.1,0-0.2,0h0c-0.1,0-0.1,0-0.2,0l-0.1,0l-0.1,0c-0.3,0.1-0.6,0.2-1,0.2h0
	c-0.7,0-1.3-0.2-1.3-0.2l-0.1,0l-0.1,0c-0.1,0-0.2,0-0.3,0c0,0-0.1,0-0.1,0c-0.7,0-1.3,0.4-1.7,1.2C9.3,11.2,9.3,11.1,9.3,11
	 M17.4,13.9c0,0.6-0.3,1-0.7,1c-0.5,2-1.9,3.4-3.6,3.4s-3.1-1.4-3.6-3.4c-0.4,0-0.8-0.5-0.8-1c0-0.3-0.1-0.7,0.1-0.9
	c0,0,0.1-0.1,0.1-0.1c0.1,0.4,0.2,0.7,0.7,0.7c0,0,0-0.6,0-1.3h0c0.2-0.7,0.6-1.5,1.4-1.6c0,0,0.1,0,0.1,0c0.1,0,0.1,0,0.2,0
	c0,0,0.7,0.3,1.5,0.3c0,0,0,0,0,0c0.4,0,0.8,0,1.2-0.2c0.1,0,0.1,0,0.2,0c0.1,0,0.1,0,0.2,0c0.5,0,0.8,0.2,1.2,0.4
	c0,0,0.1,0,0.1,0.1c0-0.2-0.2-0.4-0.1-0.5c0.1,0,0.1,0,0.2,0.1c0.2,0.2,0.3,0.8,0.5,1.4h0c0.1,0.3,0.1,0.8,0.1,1.3
	c0.5,0.1,0.7-0.3,0.9-0.7c0.1,0,0.1,0.1,0.2,0.1C17.4,13.3,17.4,13.7,17.4,13.9"/>
</svg>
