<?xml version="1.0" encoding="utf-8"?>
<!-- Generator: Adobe Illustrator 19.2.0, SVG Export Plug-In . SVG Version: 6.00 Build 0)  -->
<svg version="1.1" id="Layer_1" xmlns="http://www.w3.org/2000/svg" xmlns:xlink="http://www.w3.org/1999/xlink" x="0px" y="0px"
	 viewBox="0 0 18 18" style="enable-background:new 0 0 18 18;" xml:space="preserve">
<style type="text/css">
	.st0{fill:#3D5072;}
	.st1{fill:#DD2F37;}
	.st2{fill:#FFFFFF;}
	.st3{fill:#00B7FF;}
	.st4{fill:#F4F4F4;}
	.st5{fill:#8DD320;}
	.st6{fill:#EAAA0A;}
	.st7{fill:#EAEAEA;}
	.st8{opacity:0.45;fill:#999999;}
</style>
<g>
	<path class="st1" d="M2.6,15.4c-3.5-3.5-3.5-9.2,0-12.7c3.5-3.5,9.2-3.5,12.7,0c3.1,3.1,3.9,8.8,0,12.7
		C11.8,18.9,6.2,18.9,2.6,15.4"/>
	<path class="st2" d="M9,4.7C8.6,4.7,8.2,4.4,8.2,4c0-0.4,0.4-0.8,0.8-0.8c0.4,0,0.8,0.4,0.8,0.8C9.8,4.4,9.4,4.7,9,4.7"/>
	<path class="st2" d="M9,10.3c-0.3,0-0.5-0.2-0.5-0.5V6.3c0-0.3,0.2-0.5,0.5-0.5s0.5,0.2,0.5,0.5v3.5C9.5,10.1,9.3,10.3,9,10.3z"/>
	<path class="st2" d="M8,14.1C8,14.1,7.9,14.1,8,14.1c-0.4-0.1-0.5-0.3-0.5-0.6l0.9-4.3C8.5,9,8.8,8.8,9,8.9
		c0.3,0.1,0.4,0.3,0.4,0.6l-0.9,4.3C8.4,13.9,8.2,14.1,8,14.1z"/>
	<path class="st2" d="M10,14.1c-0.2,0-0.4-0.2-0.5-0.4L8.6,9.4C8.6,9.2,8.7,8.9,9,8.9C9.2,8.8,9.5,9,9.5,9.2l0.9,4.3
		C10.5,13.8,10.4,14,10,14.1C10.1,14.1,10,14.1,10,14.1z"/>
	<path class="st2" d="M8,10.1c0,0-0.1,0-0.1,0C7.6,10,7.5,9.7,7.5,9.5l0.9-3.3C8.5,5.9,8.8,5.7,9,5.8c0.3,0.1,0.4,0.3,0.3,0.6
		L8.4,9.7C8.4,9.9,8.2,10.1,8,10.1z"/>
	<path class="st2" d="M10,10.1c-0.2,0-0.4-0.1-0.5-0.3L8.6,6.4C8.6,6.1,8.7,5.9,9,5.8c0.3-0.1,0.5,0.1,0.6,0.3l0.9,3.3
		c0.1,0.3-0.1,0.5-0.3,0.6C10.1,10,10.1,10.1,10,10.1z"/>
</g>
</svg>
