<?xml version="1.0" encoding="utf-8"?>
<!-- Generator: Adobe Illustrator 19.2.0, SVG Export Plug-In . SVG Version: 6.00 Build 0)  -->
<svg version="1.1" id="Layer_1" xmlns="http://www.w3.org/2000/svg" xmlns:xlink="http://www.w3.org/1999/xlink" x="0px" y="0px"
	 viewBox="0 0 132 143.4" style="enable-background:new 0 0 132 143.4;" xml:space="preserve">
<style type="text/css">
	.st0{fill:#3D5072;}
	.st1{fill:#DD2F37;}
	.st2{fill:#FFFFFF;}
	.st3{fill:#00B7FF;}
	.st4{fill:#F4F4F4;}
	.st5{fill:#8DD320;}
	.st6{fill:#EAAA0A;}
</style>
<g>
	<g>
		<path class="st0" d="M69.6,36.6V18.9c0-3.2-2.6-5.8-5.8-5.8H20.5c-3.2,0-5.8,2.6-5.8,5.8v17.7C5.7,44.3,0,55.7,0,68.4v20.1
			c0,12.7,5.7,24.1,14.7,31.8v17.4c0,3.2,2.6,5.8,5.8,5.8h43.3c3.2,0,5.8-2.6,5.8-5.8v-17.4c9-7.7,14.7-19.1,14.7-31.8V68.4
			C84.3,55.7,78.6,44.3,69.6,36.6z M21.7,20h41v11.8c-6-3.3-12.8-5.2-20.1-5.2h-0.8c-7.3,0-14.1,1.9-20.1,5.2V20z M62.7,136.5h-41
			v-11.4c6,3.3,12.8,5.2,20.1,5.2h0.8c7.3,0,14.1-1.9,20.1-5.2V136.5z M42.6,123.3h-0.8C22.6,123.3,7,107.7,7,88.5V68.4
			c0-19.2,15.6-34.8,34.8-34.8h0.8c19.2,0,34.8,15.6,34.8,34.8v6.6H43.5v7h33.9v6.6C77.4,107.7,61.8,123.3,42.6,123.3z"/>
		<g>
			<path id="check-mark-3-icon_5_" class="st5" d="M80.8,91.8c-14.1,0-25.6,11.4-25.6,25.6S66.7,143,80.8,143s25.6-11.4,25.6-25.6
				S94.9,91.8,80.8,91.8z"/>
		</g>
	</g>
	<polygon class="st4" points="77.7,133.5 93.1,116.3 82.4,116.3 85.8,103.3 71.6,120.4 81.3,120.5 	"/>
</g>
</svg>
